<?xml version="1.0" encoding="utf-8"?>
<!-- Generator: Adobe Illustrator 18.0.0, SVG Export Plug-In . SVG Version: 6.00 Build 0)  -->
<!DOCTYPE svg PUBLIC "-//W3C//DTD SVG 1.1//EN" "http://www.w3.org/Graphics/SVG/1.1/DTD/svg11.dtd">
<svg version="1.1" xmlns="http://www.w3.org/2000/svg" xmlns:xlink="http://www.w3.org/1999/xlink" x="0px" y="0px"
	 viewBox="0 0 512 256" style="enable-background:new 0 0 512 256;" xml:space="preserve">
<style type="text/css">
	.st0{display:none;}
	.st1{display:inline;fill:#BB0A00;}
	.st2{display:inline;fill:#C1272D;}
	.st3{fill:#FFFFFF;}
	.st4{fill:#C1272D;}
	.st5{fill:#111111;}
</style>
<g id="Layer_2_1_" class="st0">
	<rect x="-10" y="-8" class="st1" width="537.3" height="275.3"/>
</g>
<g id="Layer_1">
	<g id="Layer_4" class="st0">
		<rect x="-38.9" y="-83.6" class="st2" width="591.3" height="370"/>
	</g>
	<g id="Layer_2" class="st0">
	</g>
	<g id="Layer_3">
		<polygon class="st3" points="83.5,191.4 83,182 83.7,181.4 84.4,130.3 83.3,129.4 83.2,128.2 84,127.7 84,125.5 83.4,125.1 
			83.4,124.3 85.4,122.9 103.4,117.1 104.3,116 104.1,111.7 103.7,111.4 103.7,110.8 107,109.6 109.6,109.9 119.3,111 122.1,109.9 
			122.4,107 123.8,104.8 122.6,103.9 122.7,103.1 125.8,102.5 126.1,100 127.7,98.5 129,95.6 131.1,94.7 132.6,96.3 133.1,97.6 
			134,98.1 134.5,99.5 137.3,100.1 141.9,101 145.3,101.8 147.1,101.7 147.7,101.6 147.6,101 148.4,100.8 148.5,101.3 151.7,100.4 
			151.5,99.6 152.4,99.6 153,100.1 155.5,99.2 155.7,98.3 156.7,98 156.7,98.6 159.8,97.9 160.2,97 161,96.7 161.3,97.4 161.6,97.3 
			161.7,96 160,94.4 163.2,93.3 163.2,92 161.3,90.4 163.4,90.1 169.3,87.9 171.7,88.5 175.3,89.4 177.8,89.4 188.2,84.8 
			195.5,86.6 196.3,85.7 196.5,84.6 198,84.7 198.1,85.5 201.6,84.3 201.6,83 203.1,82.8 203.1,83.8 207.4,82.6 207.5,81.1 
			208.7,81 209,82.2 213.4,81 213.2,79.4 214.7,79.7 215.1,80.3 218.9,78.9 219,77.9 220.3,77.2 220.7,77.7 221.1,78.6 221.9,78 
			221.9,71.8 221.2,71.6 222.9,70.2 224.8,70.2 225.7,71.3 226.8,71.8 227.5,73.8 228.1,74.4 229.8,73.6 229.8,71.8 230.5,71.4 
			231.9,72.3 236.7,70.3 245.7,66.7 245.7,61.7 247,61.7 249,62.7 249.9,62.5 252.2,60.5 253.7,59.7 255.2,59.7 257,60.3 
			259.7,62.6 261.5,65.5 261.8,67.2 263.7,67.7 265.6,67.9 265.3,69.1 265.3,71.9 275.3,82.9 277.2,84.9 279.5,88.2 280.7,87.6 
			280.8,85.5 281.4,85.6 282.9,86.2 284.3,86.7 284,90.8 284.3,95.1 284.3,101.2 288.4,102.2 288.6,101.3 289.4,101.5 290.4,102.6 
			292,103 292.3,97.8 291.1,97 292,96.6 292,94.5 290.8,93.4 290.8,92.2 292.4,91.7 292.2,88.2 292.2,74.3 290.2,73.1 290.4,72.3 
			292.5,71.8 292.8,64.6 293.4,63.2 295.1,59.9 295.8,57.2 296.2,55.6 296.7,57.2 297.1,59.6 297.6,60.1 297.5,61.6 299.7,60.5 
			301.9,57.8 305.1,55.8 306.9,54.9 310.1,55.3 311.6,56.2 313,56.8 316.4,55.4 317.4,54.3 318,51.2 318.2,37.5 318.4,27.4 
			318.9,27.4 318.7,50.9 319.6,52.8 320.8,54.8 321.7,54.7 322.9,52.5 323.5,50 324,50.4 325.2,55.1 326.9,56 328,57 329.8,56.1 
			331.6,55.4 333.4,55.6 335.4,56.4 337,58 338.5,61.6 339.2,61.9 341.1,57.8 341.8,55.3 341.9,58 342.7,60.7 344.2,62.7 345.4,64 
			345.1,65 344.4,65.3 344.5,69 346.5,71.5 347.1,72.2 346.6,73.2 345.5,75.1 345,78.8 345.1,85.4 345.2,91.6 346,92.7 347,93.4 
			346.7,94.2 345.3,95.4 345.5,96.5 346,97.1 345.2,98.8 345.2,101.5 345.8,102.2 345.6,103.3 345.2,104.2 345.1,114.1 345.3,115.2 
			349.3,116.1 351.9,115.9 354,114.7 354.8,114.1 355.2,114.3 356.4,115.5 358,115.8 360,116.4 361,116.6 360.3,117.3 360.4,118.8 
			362.4,118.9 365.6,119.8 366.1,119 366.8,119.3 367,120 369.9,119.8 370.2,118.7 370.8,118.7 371.3,119.5 375.3,119.5 375.9,119 
			376,118.2 376.7,118.1 377.1,118.8 381.9,118.2 382.3,116.8 383.5,116.8 383.2,117.8 386.9,117.5 388.3,117 388.2,116 
			388.9,116.4 390.2,117 393.5,116.8 394.5,116.3 394.6,115 395.4,115.3 396.5,116 401.2,115.5 401.3,114.1 402,114.2 402.9,115.1 
			407.4,114.3 408.5,113.1 408.6,110.8 410,110.5 410.9,109.6 412.4,109.3 414.4,109.6 415.9,112.1 417.3,112.5 417.2,113.7 
			416.8,114.6 420,119.5 422.4,123.4 424.8,123.6 424.6,129.3 424.8,133.2 426,134.2 426.1,135.1 424.8,135.8 424.3,143 
			424.5,158.4 424.7,168.5 425,171.8 425.1,183.2 425.8,184.9 428.7,191.4 		"/>
		<g>
			<g>
				<path class="st4" d="M282.4,109.8c0,21.1,0,42.1,0,63.2c0,0.6,1,0.6,1,0c0-21.1,0-42.1,0-63.2
					C283.4,109.1,282.4,109.1,282.4,109.8L282.4,109.8z"/>
			</g>
		</g>
		<g>
			<g>
				<path class="st4" d="M221.2,84.3c0,29.2,0,58.4,0,87.7c0,0.6,1,0.6,1,0c0-29.2,0-58.4,0-87.7C222.2,83.7,221.2,83.7,221.2,84.3
					L221.2,84.3z"/>
			</g>
		</g>
		<g>
			<g>
				<path class="st4" d="M184.5,94.5c0,24.8,0,49.6,0,74.4c0,0.6,1,0.6,1,0c0-24.8,0-49.6,0-74.4C185.5,93.9,184.5,93.9,184.5,94.5
					L184.5,94.5z"/>
			</g>
		</g>
		<g>
			<g>
				<path class="st4" d="M193.7,94.5c0,22.8,0,45.5,0,68.3c0,0.6,1,0.6,1,0c0-22.8,0-45.5,0-68.3C194.7,93.9,193.7,93.9,193.7,94.5
					L193.7,94.5z"/>
			</g>
		</g>
		<g>
			<g>
				<path class="st4" d="M159,103.7c0,21.1,0,42.1,0,63.2c0,0.6,1,0.6,1,0c0-21.1,0-42.1,0-63.2C160.1,103,159,103,159,103.7
					L159,103.7z"/>
			</g>
		</g>
		<g>
			<g>
				<path class="st4" d="M316,120c0-13.9,0-27.9,0-41.8c0-0.6-1-0.6-1,0c0,13.9,0,27.9,0,41.8C315,120.7,316,120.7,316,120L316,120z
					"/>
			</g>
		</g>
		<g>
			<g>
				<path class="st4" d="M371.1,132.2c0,13.9,0,27.9,0,41.8c0,0.6,1,0.6,1,0c0-13.9,0-27.9,0-41.8
					C372.1,131.6,371.1,131.6,371.1,132.2L371.1,132.2z"/>
			</g>
		</g>
		<g>
			<g>
				<path class="st4" d="M269.7,173.5c-13.3,0-26.5,0-39.8,0c-0.6,0-0.6,1,0,1c13.3,0,26.5,0,39.8,0
					C270.3,174.5,270.3,173.5,269.7,173.5L269.7,173.5z"/>
			</g>
		</g>
		<g>
			<g>
				<path class="st4" d="M234.4,84.6c4.9-2.9,9.8-5.8,14.6-8.7c0.6-0.3,0.1-1.2-0.5-0.9c-4.9,2.9-9.8,5.8-14.6,8.7
					C233.3,84.1,233.8,85,234.4,84.6L234.4,84.6z"/>
			</g>
		</g>
		<g>
			<g>
				<path class="st4" d="M256.3,78.3c5.4,3.7,10.4,8.1,14.9,12.8c0.4,0.5,1.2-0.2,0.7-0.7c-4.6-4.9-9.6-9.2-15.1-13
					C256.2,77,255.7,77.9,256.3,78.3L256.3,78.3z"/>
			</g>
		</g>
		<g>
			<g>
				<path class="st4" d="M298.6,72c1-5.3,5.4-9.6,10.8-10.2c0.6-0.1,0.6-1.1,0-1c-5.8,0.6-10.8,5.1-11.8,11
					C297.5,72.3,298.5,72.6,298.6,72L298.6,72z"/>
			</g>
		</g>
		<g>
			<g>
				<path class="st4" d="M329.2,62.3c1.9,1.1,3.7,2.1,5.6,3.1c1.8,1,3.8,2.2,4.2,4.5c0.1,0.6,1.1,0.4,1-0.3c-0.3-1.8-1.5-3-2.9-4.1
					c-2.2-1.6-4.9-2.8-7.3-4.1C329.1,61.1,328.6,62,329.2,62.3L329.2,62.3z"/>
			</g>
		</g>
		<g>
			<g>
				<path class="st4" d="M215.7,88.8c-6.8,0.3-13.5,1.6-19.9,4.1c-0.6,0.2-0.3,1.2,0.3,1c6.3-2.4,12.9-3.8,19.6-4
					C216.4,89.8,216.4,88.8,215.7,88.8L215.7,88.8z"/>
			</g>
		</g>
		<g>
			<g>
				<path class="st4" d="M179.1,97.4c-6.8-2.7-10.5,7.5-17.1,5.8c-0.6-0.2-0.9,0.8-0.3,1c6.7,1.8,10.6-8.3,17.1-5.8
					C179.5,98.6,179.7,97.7,179.1,97.4L179.1,97.4z"/>
			</g>
		</g>
		<g>
			<g>
				<path class="st4" d="M153.2,105.5c-2.5-0.1-4.9,0.5-7.1,1.7c-0.6,0.3-0.1,1.2,0.5,0.9c2.1-1.1,4.3-1.6,6.6-1.5
					C153.8,106.6,153.8,105.5,153.2,105.5L153.2,105.5z"/>
			</g>
		</g>
		<g>
			<g>
				<path class="st4" d="M135.1,111.7c1.1-0.5,2.2-1.1,3.3-1.6c0.6-0.3,0.1-1.2-0.5-0.9c-1.1,0.5-2.2,1.1-3.3,1.6
					C134,111.1,134.5,112,135.1,111.7L135.1,111.7z"/>
			</g>
		</g>
		<g>
			<g>
				<path class="st4" d="M120.9,120.4c2.8-2.3,5-5.1,6.9-8.3c0.3-0.6-0.5-1.1-0.9-0.5c-1.8,3.1-4,5.7-6.7,8.1
					C119.7,120.1,120.4,120.8,120.9,120.4L120.9,120.4z"/>
			</g>
		</g>
		<g>
			<g>
				<path class="st4" d="M114.5,122.6c-3.6-1.8-7.4,1.4-10.6,2.7c-4.4,1.8-9.2,2.7-13.9,2.8c-0.6,0-0.6,1,0,1c4.1-0.1,8.1-0.7,12-2
					c1.8-0.6,3.5-1.3,5.1-2.1c2.1-1,4.6-2.7,7-1.5C114.5,123.8,115,122.9,114.5,122.6L114.5,122.6z"/>
			</g>
		</g>
		<g>
			<g>
				<path class="st4" d="M287.8,109.8c7,4.1,15.1,5.8,23.1,5c0.6-0.1,0.6-1.1,0-1c-7.9,0.8-15.7-0.9-22.6-4.9
					C287.7,108.6,287.2,109.4,287.8,109.8L287.8,109.8z"/>
			</g>
		</g>
		<g>
			<g>
				<path class="st4" d="M339.5,79.3c0,14.5,0,29,0,43.5c0,0.6,1,0.6,1,0c0-14.5,0-29,0-43.5C340.5,78.6,339.5,78.6,339.5,79.3
					L339.5,79.3z"/>
			</g>
		</g>
		<g>
			<g>
				<path class="st4" d="M344.6,120.9c1.8,0.5,3,1.6,4.5,2.7c1.4,1,2.9,1.8,4.5,2.4c3,1.2,6.4,1.3,9.6,0.6c0.6-0.1,0.4-1.1-0.3-1
					c-3.6,0.7-7.1,0.3-10.4-1.2c-2.7-1.3-4.6-3.7-7.5-4.6C344.3,119.7,344,120.7,344.6,120.9L344.6,120.9z"/>
			</g>
		</g>
		<g>
			<g>
				<path class="st4" d="M376.7,126c7.2,0,14.3-0.8,21.3-2.4c0.6-0.2,0.4-1.1-0.3-1c-6.9,1.7-13.9,2.5-21,2.4
					C376.1,125,376.1,126,376.7,126L376.7,126z"/>
			</g>
		</g>
		<g>
			<g>
				<path class="st4" d="M399.1,130.2c3.6-3.5,6.9-7.2,9.9-11.3c0.4-0.5-0.5-1.1-0.9-0.5c-2.9,4-6.2,7.7-9.8,11.1
					C397.9,129.9,398.6,130.6,399.1,130.2L399.1,130.2z"/>
			</g>
		</g>
		<g>
			<g>
				<path class="st4" d="M411.7,119.6c1.7,3.3,3.7,6.3,6.1,9c0.4,0.5,1.2-0.2,0.7-0.7c-2.3-2.7-4.3-5.6-5.9-8.8
					C412.2,118.5,411.3,119,411.7,119.6L411.7,119.6z"/>
			</g>
		</g>
		<g>
			<g>
				<path class="st4" d="M417.6,136.4c0.2,13.6,0.2,27.2-0.2,40.8c0,0.6,1,0.6,1,0c0.3-13.6,0.4-27.2,0.2-40.8
					C418.6,135.7,417.6,135.7,417.6,136.4L417.6,136.4z"/>
			</g>
		</g>
		<g>
			<g>
				<path class="st4" d="M88.8,131.6c0,15.6,0,31.3,0,46.9c0,0.6,1,0.6,1,0c0-15.6,0-31.3,0-46.9C89.8,131,88.8,131,88.8,131.6
					L88.8,131.6z"/>
			</g>
		</g>
		<g>
			<g>
				<path class="st4" d="M310.6,181.9c-0.7-11.6-0.9-23.2-0.6-34.8c-0.2,0.2-0.3,0.3-0.5,0.5c2.6,0.1,5.1-0.4,7.4-1.3
					c1.1-0.4,2.1-1,3.1-1.6c0.8-0.5,1.7-0.8,2.7-0.9c1.3-0.1,2.4,1.2,2,2.4c-0.2,0.6,0.7,0.9,1,0.3c1-2.6-2-4-4.1-3.6
					c-1.9,0.4-3.6,1.8-5.4,2.5c-2.1,0.8-4.4,1.2-6.7,1.1c-0.3,0-0.5,0.2-0.5,0.5c-0.3,11.6-0.1,23.2,0.6,34.8
					C309.7,182.5,310.7,182.5,310.6,181.9L310.6,181.9z"/>
			</g>
		</g>
		<g>
			<g>
				<path class="st4" d="M337.5,144.9c1.4-1,2.9-1.4,4.7-1.2c-0.2-0.1-0.3-0.2-0.5-0.4c1.7,7.5-0.1,15.2-0.7,22.7
					c-0.4,4.6-0.9,12.2,4.4,14.4c0.6,0.2,0.9-0.7,0.3-1c-2.8-1.1-3.5-4.5-3.7-7.2c-0.2-3.3,0.1-6.7,0.5-10
					c0.7-6.4,1.8-12.8,0.3-19.3c-0.1-0.2-0.3-0.3-0.5-0.4c-1.9-0.2-3.6,0.2-5.2,1.3C336.5,144.4,337,145.3,337.5,144.9L337.5,144.9z
					"/>
			</g>
		</g>
		<g>
			<g>
				<path class="st4" d="M230,141.1c7.6-0.5,15.2-0.2,22.7,0.9c6.4,1,13.4,3.5,19.7,1c0.6-0.2,0.3-1.2-0.3-1
					c-6.5,2.6-13.9-0.2-20.5-1.2c-7.2-1-14.4-1.2-21.7-0.7C229.3,140.1,229.3,141.1,230,141.1L230,141.1z"/>
			</g>
		</g>
		<g>
			<g>
				<path class="st4" d="M114.5,126.2c-0.2,8.8-0.3,17.7-0.5,26.5c0,0.6,1,0.6,1,0c0.2-8.8,0.3-17.7,0.5-26.5
					C115.5,125.6,114.5,125.6,114.5,126.2L114.5,126.2z"/>
			</g>
		</g>
		<g>
			<g>
				<path class="st4" d="M141.1,108.8c0,12.9,0,25.8,0,38.7c0,0.6,1,0.6,1,0c0-12.9,0-25.8,0-38.7
					C142.1,108.2,141.1,108.2,141.1,108.8L141.1,108.8z"/>
			</g>
		</g>
		<g>
			<g>
				<path class="st4" d="M128.9,112.9c0,11.7,0,23.3,0,35c0,0.6,1,0.6,1,0c0-11.7,0-23.3,0-35C129.9,112.3,128.9,112.3,128.9,112.9
					L128.9,112.9z"/>
			</g>
		</g>
		<g>
			<g>
				<path class="st4" d="M119.1,183.8c-1.5-5.2-1.9-10.9-2-16.4c0-2.1,0.8-4.8,3-5.6c2-0.7,4.1,1.4,6.3,0.8c0.6-0.2,0.4-1.1-0.3-1
					c-2.3,0.5-4.5-1.8-6.8-0.6c-1.8,0.9-2.8,2.8-3.1,4.8c-0.5,2.8,0,5.9,0.3,8.7c0.3,3.2,0.7,6.5,1.6,9.6
					C118.3,184.7,119.3,184.4,119.1,183.8L119.1,183.8z"/>
			</g>
		</g>
		<g>
			<g>
				<path class="st4" d="M148,183.9c-0.5-7-1.8-14.6,0.4-21.4c0.1-0.2,0-0.4-0.1-0.5c-3.9-3.5-9.1-2-13.6-0.4
					c-0.6,0.2-0.3,1.2,0.3,1c2.7-1,5.3-1.8,8.2-1.7c0.6,0,4.5,0.7,4.1,1.9c-0.4,1.2-0.6,2.4-0.8,3.7c-0.7,5.7,0.2,11.7,0.6,17.5
					C147,184.6,148.1,184.6,148,183.9L148,183.9z"/>
			</g>
		</g>
	</g>
</g>
<g id="Layer_3_1_">
	<rect x="30.3" y="190.3" class="st5" width="457.3" height="70.7"/>
</g>
<g id="Layer_4_1_">
	<g>
		<path class="st3" d="M120.9,210.4h3.4v12.7h0.1c0.7-1,1.4-2,2.1-2.8l8-9.9h4.2l-9.5,11.2l10.3,15.1h-4l-8.7-12.9l-2.5,2.9v10h-3.4
			V210.4z"/>
		<path class="st3" d="M147.8,227.9c0.1,4.6,3,6.6,6.5,6.6c2.5,0,3.9-0.4,5.2-1l0.6,2.5c-1.2,0.5-3.3,1.2-6.3,1.2
			c-5.8,0-9.3-3.8-9.3-9.5c0-5.7,3.4-10.2,8.9-10.2c6.2,0,7.8,5.4,7.8,8.9c0,0.7-0.1,1.2-0.1,1.6H147.8z M157.8,225.4
			c0-2.2-0.9-5.6-4.8-5.6c-3.5,0-5,3.2-5.3,5.6H157.8z"/>
		<path class="st3" d="M169.3,209h3.4v27.7h-3.4V209z"/>
		<path class="st3" d="M183.7,217.8l3.7,10.6c0.6,1.7,1.1,3.3,1.5,4.8h0.1c0.4-1.6,1-3.1,1.6-4.8l3.7-10.6h3.6l-7.4,18.9h-3.3
			l-7.2-18.9H183.7z"/>
		<path class="st3" d="M208.9,212.5c0,1.2-0.8,2.1-2.2,2.1c-1.2,0-2.1-0.9-2.1-2.1c0-1.2,0.9-2.1,2.1-2.1
			C208.1,210.3,208.9,211.3,208.9,212.5z M205.1,236.7v-18.9h3.4v18.9H205.1z"/>
		<path class="st3" d="M218.1,222.9c0-2,0-3.5-0.2-5.1h3l0.2,3.1h0.1c0.9-1.8,3.1-3.5,6.2-3.5c2.6,0,6.7,1.6,6.7,8v11.3h-3.4v-10.9
			c0-3-1.1-5.6-4.4-5.6c-2.3,0-4,1.6-4.6,3.5c-0.2,0.4-0.2,1-0.2,1.6v11.3h-3.4V222.9z"/>
		<path class="st3" d="M275.9,235.5c-1.5,0.5-4.5,1.4-8.1,1.4c-4,0-7.3-1-9.8-3.5c-2.3-2.2-3.7-5.7-3.7-9.8
			c0-7.8,5.4-13.6,14.2-13.6c3,0,5.4,0.7,6.6,1.2l-0.8,2.8c-1.4-0.6-3.2-1.1-5.8-1.1c-6.4,0-10.6,4-10.6,10.6
			c0,6.7,4,10.6,10.1,10.6c2.2,0,3.7-0.3,4.5-0.7v-7.8h-5.3v-2.7h8.7V235.5z"/>
		<path class="st3" d="M295.7,236.7l-0.3-2.4h-0.1c-1.1,1.5-3.1,2.8-5.8,2.8c-3.8,0-5.8-2.7-5.8-5.4c0-4.6,4.1-7.1,11.3-7v-0.4
			c0-1.6-0.4-4.4-4.3-4.4c-1.8,0-3.6,0.5-4.9,1.4l-0.8-2.3c1.6-1,3.8-1.7,6.2-1.7c5.8,0,7.2,3.9,7.2,7.7v7.1c0,1.6,0.1,3.2,0.3,4.5
			H295.7z M295.1,227c-3.7-0.1-8,0.6-8,4.3c0,2.2,1.5,3.3,3.2,3.3c2.5,0,4-1.6,4.6-3.2c0.1-0.4,0.2-0.7,0.2-1.1V227z"/>
		<path class="st3" d="M307.9,209h3.4v27.7h-3.4V209z"/>
		<path class="st3" d="M321,209h3.4v27.7H321V209z"/>
		<path class="st3" d="M336,227.9c0.1,4.6,3,6.6,6.5,6.6c2.5,0,3.9-0.4,5.2-1l0.6,2.5c-1.2,0.5-3.3,1.2-6.3,1.2
			c-5.8,0-9.3-3.8-9.3-9.5c0-5.7,3.4-10.2,8.9-10.2c6.2,0,7.8,5.4,7.8,8.9c0,0.7-0.1,1.2-0.1,1.6H336z M346.1,225.4
			c0-2.2-0.9-5.6-4.8-5.6c-3.5,0-5,3.2-5.3,5.6H346.1z"/>
		<path class="st3" d="M357.5,223.7c0-2.2,0-4.1-0.2-5.9h3l0.1,3.7h0.2c0.9-2.5,2.9-4.1,5.2-4.1c0.4,0,0.7,0,1,0.1v3.2
			c-0.4-0.1-0.7-0.1-1.2-0.1c-2.4,0-4.1,1.8-4.6,4.4c-0.1,0.5-0.2,1-0.2,1.6v10.1h-3.4V223.7z"/>
		<path class="st3" d="M376.4,217.8l4.1,11.2c0.4,1.2,0.9,2.7,1.2,3.9h0.1c0.4-1.1,0.7-2.6,1.2-3.9l3.7-11.1h3.6l-5.1,13.5
			c-2.5,6.5-4.1,9.8-6.5,11.8c-1.7,1.5-3.4,2.1-4.2,2.2l-0.9-2.9c0.9-0.3,2-0.8,3-1.7c0.9-0.7,2.1-2.1,2.9-3.8
			c0.2-0.4,0.3-0.6,0.3-0.8s-0.1-0.5-0.2-0.9l-7-17.4H376.4z"/>
	</g>
</g>
</svg>
